"","year","RC_yearmean"
"1","1979",0.0418212909923284
"2","1980",0.0906973246807104
"3","1981",0.0197393606082153
"4","1982",0.0218827168785502
"5","1983",0.00773809523809524
"6","1984",0.164379165289232
"7","1985",0.0117752891398724
"8","1986",0.0677851489928331
"9","1987",0.0236188503460334
"10","1988",0.0330843335437832
"11","1989",0.0278356612387815
"12","1990",0.00946516720885673
"13","1991",0.0490681461669185
"14","1992",0.00697665236307289
"15","1993",0.0115821355024859
"16","1994",0.028000201375141
"17","1995",0.0265303648167616
"18","1996",0.0139317699634441
"19","1997",0.014068440064655
"20","1998",0.0861552383513606
"21","1999",0.185163911190549
"22","2000",0.0237217426035982
"23","2001",0.0516003289054092
"24","2002",0.020997221812477
"25","2003",0.128829390888215
