"","year","RC_yearmean"
"1","1987",0.79406604930552
"2","1988",0.483747271033197
"3","1989",0.825040765685927
"4","1990",1.00789687648736
"5","1991",0.803613480509262
"6","1992",1.36271372399507
"7","1993",1.51085387095835
"8","1994",1.07614131804382
"9","1995",0.547029585798817
"10","1996",0.728611645348019
"11","1997",0.679088377263199
"12","1998",1.11348299486024
"13","1999",0.843993583889146
"14","2000",1.25413999184523
"15","2001",1.21414825364749
"16","2002",0.847461858880112
"17","2003",0.62052488918168
"18","2004",0.979143895402257
"19","2005",0.976912433192576
"20","2006",0.731518221022787
"21","2007",1.81603238866396
"22","2008",1.16649446460017
"23","2009",0.800859269187452
"24","2010",1.05172813713664
"25","2011",0.447612849510858
"26","2012",1.46540926170135
"27","2013",1.12977608099939
"28","2014",0.887454097780572
