"","year","1","2"
"1",1979,0,0.0766723668192686
"2",1980,0,0.181394649361421
"3",1981,0,0.0394787212164306
"4",1982,0,0.0437654337571004
"5",1983,0,0.0141865079365079
"6",1984,0,0.328758330578463
"7",1985,0.000440917107583774,0.0231096611721612
"8",1986,0.000124378109452736,0.135445919876213
"9",1987,0,0.0472377006920667
"10",1988,0,0.0661686670875663
"11",1989,0.00196078431372549,0.0537105381638376
"12",1990,0.010482180293501,0.00844815412421241
"13",1991,0,0.098136292333837
"14",1992,0,0.0139533047261458
"15",1993,0,0.0231642710049718
"16",1994,0,0.0560004027502821
"17",1995,0,0.0530607296335232
"18",1996,0.00282485875706215,0.025038681169826
"19",1997,0,0.02813688012931
"20",1998,0.000641025641025641,0.171669451061696
"21",1999,0,0.407360604619206
"22",2000,0,0.0474434852071964
"23",2001,0,0.103200657810818
"24",2002,0.0102631578947368,0.0299422750772605
"25",2003,0,0.289866129498482
