"","date","discharge_cms","rain_mm","discharge_month","area_m2","rain_month","RC"
"1","1987-06",776,45.2,2011392000,4.68e+10,2115360000,0.950850918992512
"2","1987-07",590,24,1529280000,4.68e+10,1123200000,1.36153846153846
"3","1987-08",380,38.4,984960000,4.68e+10,1797120000,0.548076923076923
"4","1987-09",329,57.7,852768000,4.68e+10,2700360000,0.315797893614185
"5","1988-05",73.8,15.1,191289600,4.68e+10,706680000,0.270687722873153
"6","1988-07",512,34.2,1327104000,4.68e+10,1600560000,0.82914979757085
"7","1988-08",441,71.4,1143072000,4.68e+10,3341520000,0.342081447963801
"8","1988-09",503,56.5,1303776000,4.68e+10,2644200000,0.493070115724983
"9","1989-07",438,31.5,1135296000,4.68e+10,1474200000,0.77010989010989
"10","1989-08",318,18,824256000,4.68e+10,842400000,0.978461538461539
"11","1989-09",244,18.6,632448000,4.68e+10,870480000,0.726550868486352
"12","1990-06",312,10.6,808704000,4.68e+10,496080000,1.63018867924528
"13","1990-07",367,22.6,951264000,4.68e+10,1057680000,0.899387338325391
"14","1990-08",293,14.2,759456000,4.68e+10,664560000,1.14279523293608
"15","1990-09",275,42.4,712800000,4.68e+10,1984320000,0.359216255442671
"16","1991-05",235,9.2,609120000,4.68e+10,430560000,1.41471571906355
"17","1991-07",398,47.6,1031616000,4.68e+10,2227680000,0.463089851325145
"18","1991-08",351,39,909792000,4.68e+10,1825200000,0.498461538461538
"19","1991-09",339,22.4,878688000,4.68e+10,1048320000,0.838186813186813
"20","1992-05",590,21.8,1529280000,4.68e+10,1020240000,1.49894142554693
"21","1992-07",501,13.8,1298592000,4.68e+10,645840000,2.01070234113712
"22","1992-08",368,28.2,953856000,4.68e+10,1319760000,0.722749590834697
"23","1992-09",264,12,684288000,4.68e+10,561600000,1.21846153846154
"24","1993-06",933,18.7,2418336000,4.68e+10,875160000,2.76330728095434
"25","1993-07",788,73.8,2042496000,4.68e+10,3453840000,0.591369606003752
"26","1993-08",709,39.8,1837728000,4.68e+10,1862640000,0.986625434866641
"27","1993-09",514,16.8,1332288000,4.68e+10,786240000,1.69450549450549
"28","1993-10",329,12,852768000,4.68e+10,561600000,1.51846153846154
"29","1994-05",280,15.6,725760000,4.68e+10,730080000,0.994082840236686
"30","1994-06",577,36.5,1495584000,4.68e+10,1708200000,0.875532139093783
"31","1994-08",230,62.6,596160000,4.68e+10,2929680000,0.20348980093389
"32","1994-09",241,13.6,624672000,4.68e+10,636480000,0.981447963800905
"33","1994-10",210,5,544320000,4.68e+10,2.34e+08,2.32615384615385
"34","1995-08",321,32.5,832032000,4.68e+10,1.521e+09,0.547029585798817
"35","1996-05",153,21,396576000,4.68e+10,982800000,0.403516483516483
"36","1996-07",632,53.9,1638144000,4.68e+10,2522520000,0.649407735122021
"37","1996-08",459,19.5,1189728000,4.68e+10,912600000,1.30366863905325
"38","1996-09",696,69.1,1804032000,4.68e+10,3233880000,0.557853723700323
"39","1997-07",505,35.7,1308960000,4.68e+10,1670760000,0.783451842275372
"40","1997-08",353,28,914976000,4.68e+10,1310400000,0.698241758241758
"41","1997-09",322,32.1,834624000,4.68e+10,1502280000,0.555571531272466
"42","1998-04",57.8,1.2,149817600,4.68e+10,56160000,2.66769230769231
"43","1998-06",425,25.4,1101600000,4.68e+10,1188720000,0.926711084191399
"44","1998-07",358,42,927936000,4.68e+10,1965600000,0.472087912087912
"45","1998-08",357,61.9,925344000,4.68e+10,2896920000,0.319423387597863
"46","1998-09",392,20.7,1016064000,4.68e+10,968760000,1.04882943143813
"47","1998-10",288,12.8,746496000,4.68e+10,599040000,1.24615384615385
"48","1999-07",705,65.8,1827360000,4.68e+10,3079440000,0.593406593406593
"49","1999-08",514,18.6,1332288000,4.68e+10,870480000,1.53052109181141
"50","1999-09",487,66.1,1262304000,4.68e+10,3093480000,0.408053066449436
"51","2000-05",99.7,2,258422400,4.68e+10,93600000,2.76092307692308
"52","2000-07",386,46,1000512000,4.68e+10,2152800000,0.464749163879599
"53","2000-08",348,33.4,902016000,4.68e+10,1563120000,0.577061262091202
"54","2000-09",409,66.7,1060128000,4.68e+10,3121560000,0.339614807980625
"55","2000-10",269,7,697248000,4.68e+10,327600000,2.12835164835165
"56","2001-05",83.5,2.7,216432000,4.68e+10,126360000,1.71282051282051
"57","2001-07",932,46.1,2415744000,4.68e+10,2157480000,1.11970632404472
"58","2001-08",645,26.4,1671840000,4.68e+10,1235520000,1.35314685314685
"59","2001-09",447,36.9,1158624000,4.68e+10,1726920000,0.670919324577861
"60","2002-07",415,31.3,1075680000,4.68e+10,1464840000,0.734332759891865
"61","2002-08",292,25.3,756864000,4.68e+10,1184040000,0.6392216479173
"62","2002-09",325,15.4,842400000,4.68e+10,720720000,1.16883116883117
"63","2003-05",160,12.7,414720000,4.68e+10,594360000,0.697758933979406
"64","2003-07",304,26,787968000,4.68e+10,1216800000,0.647573964497041
"65","2003-08",335,132.9,868320000,4.68e+10,6219720000,0.139607570758812
"66","2003-09",292,27.7,756864000,4.68e+10,1296360000,0.583837822826992
"67","2003-10",224,12,580608000,4.68e+10,561600000,1.03384615384615
"68","2004-06",749,23,1941408000,4.68e+10,1076400000,1.80361204013378
"69","2004-07",445,41.6,1153440000,4.68e+10,1946880000,0.592455621301775
"70","2004-08",370,36.8,959040000,4.68e+10,1722240000,0.55685618729097
"71","2004-09",475,27.3,1231200000,4.68e+10,1277640000,0.963651732882502
"72","2005-05",76.9,2.4,199324800,4.68e+10,112320000,1.77461538461538
"73","2005-06",809,36.8,2096928000,4.68e+10,1722240000,1.21755852842809
"74","2005-07",534,67.2,1384128000,4.68e+10,3144960000,0.44010989010989
"75","2005-08",424,49.4,1099008000,4.68e+10,2311920000,0.475365929616942
"76","2006-07",521,28.6,1350432000,4.68e+10,1338480000,1.00892953200646
"77","2006-08",387,47.2,1003104000,4.68e+10,2208960000,0.454106910039113
"78","2007-09",221,7.6,572832000,4.68e+10,355680000,1.61052631578947
"79","2007-10",146,4,378432000,4.68e+10,187200000,2.02153846153846
"80","2008-07",324,45.2,839808000,4.68e+10,2115360000,0.397004765146358
"81","2008-08",414,73,1073088000,4.68e+10,3416400000,0.314099051633298
"82","2008-09",680,17.6,1762560000,4.68e+10,823680000,2.13986013986014
"83","2008-10",544,16.6,1410048000,4.68e+10,776880000,1.81501390176089
"84","2009-07",529,33,1371168000,4.68e+10,1544400000,0.887832167832168
"85","2009-08",393,25.4,1018656000,4.68e+10,1188720000,0.856935190793458
"86","2009-09",348,29.3,902016000,4.68e+10,1371240000,0.657810448936729
"87","2010-06",544,24.1,1410048000,4.68e+10,1127880000,1.25017555059049
"88","2010-07",367,50.7,951264000,4.68e+10,2372760000,0.400910332271279
"89","2010-08",452,34.9,1171584000,4.68e+10,1633320000,0.717302182058629
"90","2010-09",384,22.7,995328000,4.68e+10,1062360000,0.93690274483226
"91","2010-10",328,9.3,850176000,4.68e+10,435240000,1.95334987593052
"92","2011-07",327,20,847584000,4.68e+10,9.36e+08,0.905538461538462
"93","2011-08",282,101.5,730944000,4.68e+10,4750200000,0.153876468359227
"94","2011-09",327,63.9,847584000,4.68e+10,2990520000,0.283423618634886
"95","2012-07",407,31.3,1054944000,4.68e+10,1464840000,0.720176947652986
"96","2012-08",356,23.4,922752000,4.68e+10,1095120000,0.842603550295858
"97","2012-09",332,11.1,860544000,4.68e+10,519480000,1.65654885654886
"98","2012-10",229,4.8,593568000,4.68e+10,224640000,2.64230769230769
"99","2013-06",627,13.9,1625184000,4.68e+10,650520000,2.49828444936359
"100","2013-07",356,74.5,922752000,4.68e+10,3486600000,0.264656685596283
"101","2013-09",282,49.4,730944000,4.68e+10,2311920000,0.316163189037683
"102","2013-10",234,9,606528000,4.68e+10,421200000,1.44
"103","2014-05",315,8.8,816480000,4.68e+10,411840000,1.98251748251748
"104","2014-06",516,25.6,1337472000,4.68e+10,1198080000,1.11634615384615
"105","2014-07",230,46.2,596160000,4.68e+10,2162160000,0.275724275724276
"106","2014-08",218,18.2,565056000,4.68e+10,851760000,0.663398140321217
"107","2014-09",248,34.4,642816000,4.68e+10,1609920000,0.399284436493739
